[{
    "name": "John",
    "birthday": "2008-07-06",
    "city": "Budapest",
    "activeStatus": true,
    "bossStatus": false
}, {
    "name": "Mary",
    "birthday": "2003-02-01",
    "city": "Berlin",
    "activeStatus": true,
    "bossStatus": true
}, {
    "name": "James",
    "birthday": "2006-05-04",
    "city": "Vienna",
    "activeStatus": false,
    "bossStatus": false
}]